// Jest Snapshot v1, https://goo.gl/fbAQLP

exports[`should render Main 1`] = `
<div>
  <h1>
    <a
      onClick={[Function]}
      style={Object {}}
    >
      Reduxstagram
    </a>
  </h1>
  <div>
    <div>
      i bims der div
    </div>
  </div>
</div>
`;
